<?xml version="1.0" encoding="UTF-8" standalone="no"?>
<svg
   xmlns:dc="http://purl.org/dc/elements/1.1/"
   xmlns:cc="http://creativecommons.org/ns#"
   xmlns:rdf="http://www.w3.org/1999/02/22-rdf-syntax-ns#"
   xmlns:svg="http://www.w3.org/2000/svg"
   xmlns="http://www.w3.org/2000/svg"
   xmlns:sodipodi="http://sodipodi.sourceforge.net/DTD/sodipodi-0.dtd"
   xmlns:inkscape="http://www.inkscape.org/namespaces/inkscape"
   version="1.0"
   width="1280.000000pt"
   height="682.000000pt"
   viewBox="0 0 1280.000000 682.000000"
   preserveAspectRatio="xMidYMid meet"
   id="svg46"
   sodipodi:docname="talk-svg_silh-cc0.svg"
   inkscape:version="1.0.1 (c497b03c, 2020-09-10)">
  <defs
     id="defs50" />
  <sodipodi:namedview
     pagecolor="#ffffff"
     bordercolor="#666666"
     borderopacity="1"
     objecttolerance="10"
     gridtolerance="10"
     guidetolerance="10"
     inkscape:pageopacity="0"
     inkscape:pageshadow="2"
     inkscape:window-width="1731"
     inkscape:window-height="1208"
     id="namedview48"
     showgrid="false"
     inkscape:zoom="0.61699219"
     inkscape:cx="565.64736"
     inkscape:cy="454.66667"
     inkscape:window-x="1681"
     inkscape:window-y="25"
     inkscape:window-maximized="0"
     inkscape:current-layer="svg46" />
  <metadata
     id="metadata10">
Created by potrace 1.15, written by Peter Selinger 2001-2017
<rdf:RDF>
  <cc:Work
     rdf:about="">
    <dc:format>image/svg+xml</dc:format>
    <dc:type
       rdf:resource="http://purl.org/dc/dcmitype/StillImage" />
  </cc:Work>
</rdf:RDF>
</metadata>
  <g
     transform="matrix(0.072,0,0,-0.072,179.2042,589.50993)"
     fill="#2196f3"
     stroke="none"
     id="g44">
    <path
       d="m 5877,5650 c -51,-28 -124,-35 -197,-20 -58,12 -61,12 -98,-14 -44,-30 -69,-32 -138,-11 -67,20 -134,19 -164,-2 -32,-23 -118,-42 -192,-42 -50,-1 -62,-5 -94,-33 -29,-25 -46,-32 -83,-33 -25,-1 -62,-7 -82,-15 -31,-11 -40,-10 -81,8 -54,23 -76,15 -98,-38 -8,-20 -22,-32 -39,-36 -14,-3 -46,-15 -71,-27 -31,-15 -67,-22 -113,-23 -38,-1 -73,-6 -79,-12 -14,-14 -3,-43 34,-89 51,-64 129,-183 139,-213 9,-23 5,-40 -16,-92 -15,-35 -46,-112 -69,-173 -24,-60 -61,-146 -83,-190 -62,-121 -73,-170 -73,-313 0,-94 -4,-132 -16,-158 -9,-19 -64,-77 -123,-128 -58,-52 -137,-127 -176,-166 -38,-39 -102,-94 -142,-121 -118,-83 -120,-137 -6,-179 76,-28 140,-66 153,-90 19,-36 10,-83 -26,-140 -34,-54 -34,-55 -15,-71 11,-9 45,-19 76,-23 64,-7 109,-27 119,-51 25,-66 -19,-126 -105,-144 -27,-6 -56,-11 -62,-11 -22,0 -56,-30 -51,-44 3,-8 36,-30 74,-50 95,-50 99,-65 43,-182 -49,-104 -49,-145 2,-242 42,-80 94,-131 152,-151 90,-31 372,-24 648,15 62,9 125,14 139,10 62,-15 121,-233 141,-516 18,-258 74,-627 97,-641 7,-5 81,-9 165,-9 151,0 183,-4 183,-21 0,-6 -31,-51 -70,-100 -38,-50 -70,-100 -70,-110 0,-19 27,-19 1159,-19 997,0 1162,2 1174,14 22,22 67,290 86,517 25,285 32,339 56,436 32,133 59,191 94,200 14,3 109,-4 211,-17 218,-29 485,-34 563,-11 66,19 126,76 170,161 47,91 48,132 6,220 -63,131 -59,151 37,198 65,32 85,55 67,73 -6,6 -46,19 -89,30 -94,23 -125,49 -127,104 -1,47 33,80 95,90 81,13 118,25 118,41 0,8 -16,38 -35,67 -19,28 -35,64 -35,80 0,44 54,93 140,128 88,36 110,53 110,89 0,28 -27,58 -90,100 -19,13 -87,74 -150,134 -63,61 -150,142 -193,179 -107,95 -111,105 -113,262 -1,152 -13,200 -80,331 -26,49 -60,127 -76,174 -17,47 -43,114 -59,149 -16,35 -29,76 -29,91 0,27 71,146 135,225 74,92 69,110 -33,110 -48,0 -80,7 -112,22 -25,12 -58,24 -73,28 -20,4 -33,16 -43,41 -20,47 -53,62 -88,39 -19,-13 -37,-16 -68,-11 -24,3 -69,9 -100,12 -43,5 -65,13 -85,33 -23,21 -42,27 -98,32 -120,12 -159,21 -192,46 -36,26 -48,26 -171,-3 -67,-16 -91,-13 -134,19 -22,16 -34,18 -70,12 -86,-16 -160,-11 -211,14 -41,20 -57,22 -106,17 -70,-8 -103,7 -195,92 -56,51 -62,54 -98,48 -128,-20 -113,-23 -163,28 -56,56 -82,64 -151,42 -85,-27 -202,-44 -239,-36 -19,4 -58,22 -87,40 -66,41 -111,47 -161,20 z"
       id="path12" />
    <path
       d="m 3354,4659 c -135,-22 -265,-91 -370,-194 -275,-271 -333,-664 -151,-1033 42,-86 100,-162 112,-150 4,4 2,29 -5,55 -29,116 -5,230 63,301 91,96 175,126 403,147 92,9 188,21 213,27 133,32 248,124 308,246 36,73 38,80 38,177 0,93 -2,105 -32,166 -94,191 -336,299 -579,258 z"
       id="path14" />
    <path
       d="M 16,4525 C 2,4511 0,4467 0,4170 c 0,-186 3,-345 6,-354 3,-9 14,-16 24,-16 26,0 30,19 30,133 0,187 33,282 131,379 66,67 159,115 238,125 28,3 54,9 57,14 11,19 -226,72 -377,84 -63,5 -80,3 -93,-10 z"
       id="path16" />
    <path
       d="m 1183,4451 c -98,-36 -196,-125 -241,-218 -22,-47 -38,-48 -80,-5 -50,52 -101,88 -170,120 -49,23 -70,27 -147,27 -76,0 -99,-4 -145,-26 -110,-52 -198,-163 -243,-304 -30,-96 -29,-271 2,-400 70,-290 291,-525 591,-626 130,-44 282,-51 415,-19 125,29 145,33 145,26 0,-3 -25,-43 -55,-89 -104,-160 -141,-289 -132,-464 13,-282 193,-567 481,-762 118,-81 313,-160 486,-197 120,-26 388,-26 480,-1 156,44 281,132 337,238 24,48 28,65 28,145 0,84 -3,95 -37,165 -44,90 -99,159 -168,214 -57,45 -62,62 -22,71 83,19 176,50 248,84 123,57 127,78 12,61 -165,-25 -298,42 -372,187 -32,64 -46,149 -46,291 0,258 -55,378 -225,495 -59,40 -60,41 -30,44 69,8 167,-51 195,-118 16,-38 30,-39 30,-1 0,80 -73,243 -149,336 -182,220 -508,300 -720,178 -58,-34 -127,-98 -158,-146 -32,-51 -54,-141 -46,-191 14,-94 88,-187 180,-228 24,-11 46,-25 49,-32 3,-7 -7,-48 -22,-92 -24,-67 -28,-95 -27,-184 0,-113 20,-192 69,-277 37,-65 11,-62 -60,6 -86,83 -114,143 -120,249 -5,100 5,141 45,186 41,47 38,60 -8,50 -21,-5 -76,-9 -123,-9 -69,1 -93,5 -129,24 -56,29 -133,106 -160,159 -37,73 -26,79 46,28 101,-71 269,-136 355,-136 40,0 35,11 -21,42 -148,81 -173,265 -61,442 103,162 130,213 141,264 24,117 -19,241 -113,328 -89,81 -196,104 -305,65 z m 962,-961 c -3,-5 -12,-10 -18,-10 -7,0 -6,4 3,10 19,12 23,12 15,0 z m -45,-25 c 0,-2 -10,-9 -22,-15 -22,-11 -22,-10 -4,4 21,17 26,19 26,11 z m -50,-29 c 0,-2 -8,-10 -17,-17 -16,-13 -17,-12 -4,4 13,16 21,21 21,13 z m -45,-36 c -3,-5 -16,-15 -28,-21 -19,-9 -19,-8 3,10 28,23 34,26 25,11 z m -55,-35 c 0,-7 -77,-45 -92,-45 -7,0 10,11 37,24 59,29 55,27 55,21 z m -117,-52 c -7,-2 -19,-2 -25,0 -7,3 -2,5 12,5 14,0 19,-2 13,-5 z"
       id="path18" />
    <path
       d="m 9372,4420 c -347,-91 -463,-464 -221,-708 99,-98 201,-134 430,-152 222,-17 293,-40 385,-123 89,-80 120,-188 89,-310 -9,-38 -14,-71 -10,-75 4,-4 20,9 36,28 85,100 162,303 181,473 26,229 -50,459 -215,651 -166,192 -436,278 -675,216 z"
       id="path20" />
    <path
       d="m 12673,4319 c -165,-34 -363,-114 -363,-145 0,-13 6,-15 28,-10 15,4 64,9 108,13 124,9 221,-20 298,-88 20,-17 40,-28 46,-24 15,9 13,248 -2,263 -7,7 -14,12 -17,11 -4,0 -47,-9 -98,-20 z"
       id="path22" />
    <path
       d="m 11652,4239 c -171,-32 -296,-220 -262,-392 14,-71 34,-115 100,-212 84,-125 103,-170 108,-262 4,-74 2,-88 -22,-136 -31,-63 -44,-77 -116,-116 -43,-24 -51,-31 -37,-37 50,-19 252,49 362,122 39,25 75,46 80,47 17,3 5,-35 -26,-80 -103,-149 -248,-202 -397,-145 -40,16 -54,18 -58,8 -7,-17 11,-61 41,-100 59,-78 69,-190 24,-283 -34,-70 -148,-187 -166,-169 -3,2 9,32 25,66 69,137 79,306 28,446 -14,39 -26,76 -26,81 0,5 24,21 54,35 121,60 180,146 181,263 0,89 -27,148 -106,228 -71,71 -161,115 -266,130 -62,9 -88,8 -160,-6 -202,-42 -363,-156 -462,-330 -53,-93 -100,-267 -72,-267 5,0 14,13 21,30 17,42 91,107 136,119 96,27 102,5 15,-54 -76,-50 -117,-95 -155,-171 -37,-75 -47,-133 -52,-308 -5,-177 -13,-225 -50,-297 -74,-147 -218,-213 -392,-181 -163,30 57,-93 246,-138 64,-15 74,-33 36,-62 -60,-45 -144,-142 -177,-206 -66,-127 -71,-226 -16,-339 35,-73 91,-126 188,-177 113,-59 203,-78 366,-79 492,-1 950,267 1141,668 78,164 105,304 84,441 -17,109 -60,223 -125,325 -58,91 -67,116 -37,104 52,-21 178,-46 252,-51 307,-22 651,183 808,481 l 27,50 v 320 c 0,365 3,348 -89,440 -93,93 -202,127 -325,101 -88,-19 -154,-53 -230,-123 -33,-29 -64,-53 -69,-53 -6,0 -24,25 -42,57 -84,149 -248,239 -388,212 z"
       id="path24" />
    <path
       d="m 3276,3690 c -204,-36 -355,-246 -270,-377 14,-22 20,-23 174,-23 h 159 l 14,28 c 8,15 17,61 20,103 4,42 11,89 17,105 23,60 86,104 150,104 46,0 27,17 -43,39 -80,24 -159,32 -221,21 z"
       id="path26" />
    <path
       d="m 3498,3579 c -43,-22 -68,-63 -68,-110 0,-23 10,-41 39,-70 l 39,-39 h 88 c 100,0 148,-20 160,-65 7,-29 20,-33 28,-7 16,57 16,86 1,137 -39,135 -180,211 -287,154 z"
       id="path28" />
    <path
       d="M 74,3533 C 57,3457 46,3420 24,3368 1,3313 0,3300 0,3094 c 0,-240 7,-260 48,-139 43,124 64,259 66,410 1,140 -6,195 -24,195 -5,0 -12,-12 -16,-27 z"
       id="path30" />
    <path
       d="m 9530,3455 c -105,-30 -133,-55 -61,-55 48,0 98,-33 122,-80 10,-19 23,-78 29,-130 6,-54 18,-107 28,-125 48,-81 168,-118 249,-77 130,67 151,232 44,354 -93,106 -268,154 -411,113 z"
       id="path32" />
    <path
       d="m 3410,3333 c -1,-98 -66,-179 -169,-210 -42,-12 -76,-14 -145,-9 -257,19 -248,19 -311,-4 -81,-30 -165,-114 -190,-190 -54,-162 57,-325 255,-376 352,-90 704,296 627,687 -28,137 -67,197 -67,102 z"
       id="path34" />
    <path
       d="m 9375,3371 c -16,-4 -39,-13 -51,-19 -31,-17 -94,-90 -110,-128 -22,-52 -17,-184 7,-184 5,0 9,7 9,16 0,8 13,29 29,45 28,27 34,29 113,29 93,0 138,16 172,63 65,88 -48,207 -169,178 z"
       id="path36" />
    <path
       d="m 3605,3332 c -77,-17 -118,-109 -81,-181 50,-95 208,-147 300,-99 18,10 17,12 -12,23 -43,19 -61,51 -69,125 -5,48 -12,70 -32,92 -27,30 -73,47 -106,40 z"
       id="path38" />
    <path
       d="m 9547,3118 c -58,-155 -51,-352 18,-487 111,-221 333,-352 538,-320 271,43 397,300 235,484 -77,88 -186,123 -322,104 -136,-18 -234,-15 -294,11 -90,39 -142,116 -142,213 0,49 -14,47 -33,-5 z"
       id="path40" />
    <path
       d="m 9323,3096 c -44,-20 -64,-55 -73,-131 -9,-70 -26,-100 -70,-117 l -25,-10 35,-15 c 52,-23 140,-12 197,24 68,41 88,74 88,139 0,46 -4,58 -30,84 -36,36 -79,45 -122,26 z"
       id="path42" />
  </g>
</svg>
